*** Darwin 4x14 ***
Turn = 0.
  01234567890123
0 .....f........
1 ........f.....
2 h...r.h.......
3 .h..rf........

*** Darwin 19x17 ***
Turn = 0.
  01234567890123456
0 ..f.....h........
1 h................
2 .....h...........
3 .................
4 .................
5 .................
6 ......t...h....t.
7 ....h............
8 .................
9 hh...............
0 .................
1 .................
2 ............r....
3 ..........f......
4 .................
5 .................
6 .................
7 .................
8 .................

Turn = 4.
  01234567890123456
0 ..f.....h........
1 .................
2 .................
3 .................
4 .................
5 h................
6 .....tth.......t.
7 h................
8 ............r....
9 hh...............
0 .................
1 .................
2 .................
3 ..........f......
4 .................
5 .................
6 .................
7 .................
8 .................

*** Darwin 10x17 ***
Turn = 0.
  01234567890123456
0 .................
1 .................
2 .................
3 ...............t.
4 .r.........f.....
5 ........f........
6 .................
7 .................
8 ....h............
9 .................

*** Darwin 11x18 ***
Turn = 0.
  012345678901234567
0 .............f....
1 ................t.
2 ..........r.......
3 ....r....t........
4 .........t........
5 .h................
6 ......t...........
7 ........t.........
8 .....h.........f..
9 ..................
0 ......r...........

Turn = 9.
  012345678901234567
0 .....h.........rt.
1 ................t.
2 ......r...........
3 .........t........
4 .........t........
5 ..................
6 .r................
7 r.......t.........
8 ...............f..
9 ..................
0 .h................

*** Darwin 4x20 ***
Turn = 0.
  01234567890123456789
0 ...f.........t.f....
1 ..r...........r.....
2 ...............h...r
3 ........f.........r.

*** Darwin 13x5 ***
Turn = 0.
  01234
0 .....
1 f....
2 ...h.
3 ....t
4 .....
5 .f...
6 .....
7 ..h..
8 t.hf.
9 ....r
0 .....
1 .....
2 ..r..

Turn = 4.
  01234
0 .....
1 f....
2 h....
3 ....t
4 .....
5 .f..r
6 .....
7 t....
8 th.f.
9 .....
0 .....
1 .....
2 r....

*** Darwin 7x9 ***
Turn = 0.
  012345678
0 t.h......
1 .........
2 .....r...
3 ..t......
4 ........r
5 .........
6 .........

*** Darwin 20x7 ***
Turn = 0.
  0123456
0 .......
1 f......
2 ..h....
3 t......
4 .......
5 .......
6 .......
7 .......
8 ......h
9 .....f.
0 .......
1 ..h..f.
2 .......
3 .......
4 f......
5 .......
6 .......
7 ...t.r.
8 .......
9 .......

*** Darwin 14x15 ***
Turn = 0.
  012345678901234
0 ......t.f...t..
1 ...............
2 ...............
3 ...............
4 ..f............
5 .....h.........
6 ..............t
7 ..........r....
8 ...............
9 ..............h
0 ...............
1 ...............
2 ...............
3 ........r......

Turn = 5.
  012345678901234
0 ......t.f...t..
1 ...............
2 ..........r....
3 ...............
4 ..f............
5 h..............
6 ..............t
7 ..............t
8 ...............
9 ...............
0 ...............
1 ...............
2 ...............
3 .............r.

*** Darwin 8x6 ***
Turn = 0.
  012345
0 ...f..
1 r...f.
2 .....r
3 .....t
4 ......
5 fr....
6 ...hf.
7 ..ff..

Turn = 2.
  012345
0 r..f..
1 ....f.
2 .....r
3 ......
4 .....r
5 f.....
6 ...hf.
7 .rff..

Turn = 4.
  012345
0 r..f..
1 ....f.
2 ...r..
3 ......
4 ......
5 f.....
6 ...hfr
7 r.ff..

Turn = 6.
  012345
0 ..rf..
1 ....f.
2 .r....
3 ......
4 ......
5 f.....
6 ...hf.
7 r.ff.r

Turn = 8.
  012345
0 ...r..
1 ....f.
2 r..r..
3 ......
4 ......
5 f.....
6 ..rhf.
7 .r.rr.

Turn = 10.
  012345
0 r....r
1 ....f.
2 ......
3 ......
4 ..rr..
5 f.....
6 ...hr.
7 ..rrr.

*** Darwin 7x9 ***
Turn = 0.
  012345678
0 ....h.h..
1 .........
2 .........
3 .........
4 .....ft..
5 .........
6 ......h..

*** Darwin 7x9 ***
Turn = 0.
  012345678
0 .h.......
1 .........
2 ...ff..t.
3 .........
4 .........
5 .........
6 th.......

Turn = 3.
  012345678
0 .h.......
1 .........
2 ...ff..t.
3 .........
4 .........
5 .........
6 tt.......

*** Darwin 12x7 ***
Turn = 0.
  0123456
0 .......
1 ....t..
2 .......
3 .......
4 .......
5 .......
6 .......
7 .......
8 .......
9 .......
0 .......
1 ...f...

*** Darwin 12x8 ***
Turn = 0.
  01234567
0 .......f
1 ....h...
2 ........
3 ..r.....
4 ...h....
5 ........
6 h.......
7 ........
8 ........
9 ...f....
0 ..r.....
1 r.......

Turn = 2.
  01234567
0 .......f
1 ..h.....
2 ........
3 ...hr...
4 ........
5 ........
6 h.......
7 ........
8 ........
9 ...f....
0 ....r...
1 r.......

Turn = 4.
  01234567
0 .......f
1 h..h....
2 ........
3 ......r.
4 ........
5 ........
6 h.......
7 ........
8 ........
9 ...f....
0 ......r.
1 r.......

*** Darwin 10x11 ***
Turn = 0.
  01234567890
0 ..f......t.
1 ...........
2 ...........
3 ...t.t.....
4 ...........
5 ...........
6 ........f..
7 ...........
8 ...........
9 .f.f....t..

Turn = 5.
  01234567890
0 ..f......t.
1 ...........
2 ...........
3 ...t.t.....
4 ...........
5 ...........
6 ........f..
7 ...........
8 ...........
9 .f.f....t..

*** Darwin 2x2 ***
Turn = 0.
  01
0 rt
1 h.

*** Darwin 7x14 ***
Turn = 0.
  01234567890123
0 ..r...........
1 ...t..........
2 ...........r..
3 ....t....r....
4 .....r.....t..
5 ...........f..
6 ft............

Turn = 1.
  01234567890123
0 .r............
1 ...t..........
2 ..............
3 ....t.....rr..
4 ....r......t..
5 ...........t..
6 tt............

Turn = 2.
  01234567890123
0 r.............
1 ...t..........
2 ..............
3 ....t.....rr..
4 ...r.......r..
5 ..........r...
6 tt............

Turn = 3.
  01234567890123
0 r.............
1 ...t..........
2 ..............
3 ....t......r..
4 ..r.......r...
5 .........r.r..
6 tt............

Turn = 4.
  01234567890123
0 ..............
1 r..t..........
2 ..............
3 ....t.....r...
4 .r............
5 ........r.r...
6 tt.........r..

Turn = 5.
  01234567890123
0 ..............
1 ...t..........
2 r.............
3 ....t....r....
4 r.............
5 .......r......
6 tt........rr..

Turn = 6.
  01234567890123
0 ..............
1 ...t..........
2 ..............
3 r...t...r.....
4 r.............
5 ......r.......
6 tt........rr..

Turn = 7.
  01234567890123
0 ..............
1 ...t..........
2 ..............
3 r...t..r......
4 r.............
5 .....r........
6 tt.......r.r..

Turn = 8.
  01234567890123
0 ..............
1 ...t..........
2 ..............
3 .r..t.r.......
4 .r............
5 ....r.........
6 tt......r.r...

Turn = 9.
  01234567890123
0 ..............
1 ...t..........
2 ..............
3 ..r.tr........
4 ..r...........
5 ...r..........
6 tt.....r.r....

*** Darwin 10x5 ***
Turn = 0.
  01234
0 f..f.
1 ...h.
2 ..t.h
3 t....
4 r....
5 .....
6 .....
7 ..f..
8 ..t..
9 ...t.

Turn = 1.
  01234
0 f..f.
1 ..t..
2 ..th.
3 t....
4 t....
5 .....
6 .....
7 ..f..
8 ..t..
9 ...t.

Turn = 2.
  01234
0 f..f.
1 ..t..
2 ..th.
3 t....
4 t....
5 .....
6 .....
7 ..t..
8 ..t..
9 ...t.

Turn = 3.
  01234
0 f..f.
1 ..t..
2 ..th.
3 t....
4 t....
5 .....
6 .....
7 ..t..
8 ..t..
9 ...t.

*** Darwin 11x8 ***
Turn = 0.
  01234567
0 .......t
1 ...t....
2 .....fhr
3 .......h
4 .t......
5 ........
6 ........
7 .....h..
8 ..r..r..
9 ...h....
0 ........

Turn = 4.
  01234567
0 ......rr
1 ...t...r
2 .....f.h
3 .....h..
4 .t......
5 ........
6 ........
7 ........
8 ........
9 .......h
0 ...rr...

*** Darwin 10x19 ***
Turn = 0.
  0123456789012345678
0 ...................
1 ....f..............
2 ...................
3 ...................
4 ......h.....h......
5 ...................
6 .............f.....
7 ...................
8 ...................
9 ..........r........

*** Darwin 10x16 ***
Turn = 0.
  0123456789012345
0 ..h.............
1 ................
2 .h........t.....
3 ................
4 ..f...r.........
5 ................
6 ................
7 ................
8 .......h........
9 ................

*** Darwin 19x19 ***
Turn = 0.
  0123456789012345678
0 ...................
1 ...................
2 ...................
3 ...................
4 ...................
5 ...................
6 ...................
7 ...................
8 .............h.....
9 ...................
0 ...................
1 ...................
2 ...................
3 ...................
4 ...................
5 ....t..............
6 ...................
7 ...................
8 .........t.r.......
