*** Darwin 7x5 ***
Turn = 0.
  01234
0 r....
1 t...f
2 .r...
3 ...h.
4 rt..r
5 .r...
6 r....

Turn = 1.
  01234
0 .r...
1 t...f
2 ..r..
3 ....h
4 rt...
5 .t..r
6 r....

Turn = 2.
  01234
0 ..r..
1 t...f
2 ...r.
3 r...h
4 .t...
5 .t...
6 r...r

Turn = 3.
  01234
0 ...r.
1 t...f
2 r...r
3 ....h
4 .t...
5 .t...
6 r...r

Turn = 4.
  01234
0 ....r
1 t...f
2 t...r
3 ....h
4 .t...
5 rt...
6 ...r.

Turn = 5.
  01234
0 ....r
1 t...f
2 t...r
3 ....r
4 rt...
5 .t...
6 ..r..

Turn = 6.
  01234
0 ....r
1 t...f
2 t...r
3 r...r
4 .t...
5 .t...
6 .r...

Turn = 7.
  01234
0 ....r
1 t...f
2 r..r.
3 r..r.
4 .t...
5 .t...
6 r....

Turn = 8.
  01234
0 ....r
1 r..r.
2 r.r..
3 r.r..
4 .t...
5 .t...
6 r....

Turn = 9.
  01234
0 .....
1 r.r.r
2 rr...
3 rr...
4 .t...
5 rt...
6 .....

Turn = 10.
  01234
0 .....
1 rr...
2 rr..r
3 r....
4 rt...
5 rt...
6 .....

*** Darwin 7x9 ***
Turn = 0.
  012345678
0 .........
1 .........
2 ..r...f..
3 ....f.f..
4 .......hr
5 .........
6 t......r.

Turn = 1.
  012345678
0 .........
1 .........
2 ...r..f..
3 ....f.f..
4 .......hr
5 .......r.
6 t........

Turn = 2.
  012345678
0 .........
1 .........
2 ....r.f..
3 ....f.f..
4 .......r.
5 .......rr
6 t........

Turn = 3.
  012345678
0 .........
1 .........
2 .....rf..
3 ....f.f..
4 .......rr
5 .........
6 t.......r

Turn = 4.
  012345678
0 .........
1 .........
2 .....r.r.
3 ....f.fr.
4 ........r
5 .........
6 t.......r

Turn = 5.
  012345678
0 .........
1 .........
2 ......rrr
3 ....f.f.r
4 .........
5 .........
6 t......r.

*** Darwin 2x3 ***
Turn = 0.
  012
0 ..t
1 ...

Turn = 1.
  012
0 ..t
1 ...

Turn = 2.
  012
0 ..t
1 ...

Turn = 3.
  012
0 ..t
1 ...

Turn = 4.
  012
0 ..t
1 ...

Turn = 5.
  012
0 ..t
1 ...

*** Darwin 7x2 ***
Turn = 0.
  01
0 .r
1 ..
2 ..
3 ..
4 h.
5 ..
6 ..

Turn = 1.
  01
0 .r
1 ..
2 ..
3 ..
4 .h
5 ..
6 ..

Turn = 2.
  01
0 .r
1 ..
2 ..
3 ..
4 .h
5 ..
6 ..

Turn = 3.
  01
0 .r
1 ..
2 ..
3 ..
4 .h
5 ..
6 ..

Turn = 4.
  01
0 .r
1 ..
2 ..
3 ..
4 .h
5 ..
6 ..

Turn = 5.
  01
0 ..
1 .r
2 ..
3 ..
4 .h
5 ..
6 ..

*** Darwin 8x7 ***
Turn = 0.
  0123456
0 .......
1 .t.....
2 .......
3 .......
4 r......
5 .......
6 .......
7 .......

Turn = 1.
  0123456
0 .......
1 .t.....
2 .......
3 .......
4 .......
5 r......
6 .......
7 .......

Turn = 2.
  0123456
0 .......
1 .t.....
2 .......
3 .......
4 .......
5 .......
6 r......
7 .......

Turn = 3.
  0123456
0 .......
1 .t.....
2 .......
3 .......
4 .......
5 .......
6 .......
7 r......

Turn = 4.
  0123456
0 .......
1 .t.....
2 .......
3 .......
4 .......
5 .......
6 .......
7 r......

Turn = 5.
  0123456
0 .......
1 .t.....
2 .......
3 .......
4 .......
5 .......
6 .......
7 r......

*** Darwin 4x3 ***
Turn = 0.
  012
0 .rr
1 rfr
2 .hr
3 r..

Turn = 1.
  012
0 rrr
1 .rr
2 r.r
3 .r.

Turn = 2.
  012
0 rrr
1 r.r
2 .rr
3 .r.

Turn = 3.
  012
0 rrr
1 r.r
2 .rr
3 r..

Turn = 4.
  012
0 r.r
1 rrr
2 rr.
3 r..

Turn = 5.
  012
0 .rr
1 rrr
2 rr.
3 r..

*** Darwin 2x1 ***
Turn = 0.
  0
0 t
1 r

Turn = 1.
  0
0 t
1 r

Turn = 2.
  0
0 r
1 r

Turn = 3.
  0
0 r
1 r

Turn = 4.
  0
0 r
1 r

Turn = 5.
  0
0 r
1 r

*** Darwin 8x7 ***
Turn = 0.
  0123456
0 .......
1 .......
2 t......
3 .......
4 r...f..
5 .......
6 .......
7 .......

Turn = 2.
  0123456
0 .......
1 .......
2 t......
3 r......
4 ....f..
5 .......
6 .......
7 .......

Turn = 4.
  0123456
0 .......
1 .......
2 t......
3 t......
4 ....f..
5 .......
6 .......
7 .......

*** Darwin 1x3 ***
Turn = 0.
  012
0 trt

Turn = 1.
  012
0 rtt

Turn = 2.
  012
0 ttt

Turn = 3.
  012
0 ttt

Turn = 4.
  012
0 ttt

Turn = 5.
  012
0 ttt

*** Darwin 7x2 ***
Turn = 0.
  01
0 .t
1 r.
2 t.
3 ..
4 ..
5 ..
6 fh

Turn = 2.
  01
0 rt
1 ..
2 t.
3 ..
4 ..
5 ..
6 fh

Turn = 4.
  01
0 r.
1 .r
2 t.
3 ..
4 ..
5 ..
6 fh

Turn = 6.
  01
0 ..
1 r.
2 ..
3 rr
4 ..
5 ..
6 fh

*** Darwin 3x2 ***
Turn = 0.
  01
0 .t
1 ..
2 fr

Turn = 3.
  01
0 .r
1 .r
2 f.

Turn = 6.
  01
0 r.
1 r.
2 f.

*** Darwin 2x3 ***
Turn = 0.
  012
0 ..h
1 rrf

Turn = 1.
  012
0 r.h
1 r.f

Turn = 2.
  012
0 r.h
1 r.f

Turn = 3.
  012
0 .rh
1 r.f

Turn = 4.
  012
0 .rr
1 r.f

Turn = 5.
  012
0 rrr
1 ..r

Turn = 6.
  012
0 r.r
1 .rr

*** Darwin 9x7 ***
Turn = 0.
  0123456
0 .......
1 ...t...
2 r.f....
3 r......
4 ....h..
5 t......
6 .......
7 ......r
8 ....t..

Turn = 1.
  0123456
0 .......
1 ...t...
2 r.f....
3 .......
4 t....h.
5 t......
6 .......
7 ......r
8 ....t..

Turn = 2.
  0123456
0 .......
1 r..t...
2 ..f....
3 .......
4 t.....h
5 t......
6 ......r
7 .......
8 ....t..

Turn = 3.
  0123456
0 r......
1 ...t...
2 ..f....
3 .......
4 t.....h
5 t.....r
6 .......
7 .......
8 ....t..

*** Darwin 7x9 ***
Turn = 0.
  012345678
0 ..f......
1 ..r..f...
2 .........
3 .........
4 .....t..r
5 .........
6 ..t......

Turn = 1.
  012345678
0 ..f......
1 .....f...
2 ..r......
3 .........
4 .....t..r
5 .........
6 ..t......

Turn = 2.
  012345678
0 ..f......
1 .....f...
2 .........
3 ..r......
4 .....t...
5 ........r
6 ..t......

Turn = 3.
  012345678
0 ..f......
1 .....f...
2 .........
3 .........
4 ..r..t...
5 .........
6 ..t.....r

Turn = 4.
  012345678
0 ..f......
1 .....f...
2 .........
3 .........
4 .....t...
5 ..r......
6 ..t.....r

Turn = 5.
  012345678
0 ..f......
1 .....f...
2 .........
3 .........
4 .....t...
5 ..r......
6 ...r....r

*** Darwin 4x9 ***
Turn = 0.
  012345678
0 .......t.
1 .........
2 .........
3 .........

Turn = 1.
  012345678
0 .......t.
1 .........
2 .........
3 .........

Turn = 2.
  012345678
0 .......t.
1 .........
2 .........
3 .........

Turn = 3.
  012345678
0 .......t.
1 .........
2 .........
3 .........

Turn = 4.
  012345678
0 .......t.
1 .........
2 .........
3 .........

*** Darwin 9x9 ***
Turn = 0.
  012345678
0 .........
1 .........
2 .t.......
3 .....h...
4 .........
5 .........
6 .......r.
7 .....t...
8 .........

Turn = 2.
  012345678
0 .........
1 .........
2 .t.......
3 ...h.....
4 .........
5 .........
6 ........r
7 .....t...
8 .........

Turn = 4.
  012345678
0 .........
1 .........
2 .t.......
3 .h.......
4 .........
5 .........
6 .........
7 .....t...
8 ........r

*** Darwin 7x1 ***
Turn = 0.
  0
0 f
1 f
2 .
3 t
4 r
5 .
6 .

Turn = 1.
  0
0 f
1 f
2 .
3 t
4 r
5 .
6 .

Turn = 2.
  0
0 f
1 f
2 .
3 t
4 t
5 .
6 .

Turn = 3.
  0
0 f
1 f
2 .
3 t
4 t
5 .
6 .

*** Darwin 3x3 ***
Turn = 0.
  012
0 fr.
1 frr
2 .t.

Turn = 2.
  012
0 rrr
1 fr.
2 .r.

Turn = 4.
  012
0 rrr
1 rr.
2 r..

Turn = 6.
  012
0 rrr
1 rr.
2 .r.

Turn = 8.
  012
0 rrr
1 r..
2 r.r

Turn = 10.
  012
0 rrr
1 r..
2 .rr

*** Darwin 5x2 ***
Turn = 0.
  01
0 rf
1 f.
2 ht
3 .f
4 t.

Turn = 2.
  01
0 rr
1 f.
2 tt
3 .f
4 t.

Turn = 4.
  01
0 .r
1 tr
2 tr
3 .r
4 t.

Turn = 6.
  01
0 .r
1 tt
2 tt
3 .t
4 t.

Turn = 8.
  01
0 .t
1 tt
2 tt
3 .t
4 t.

Turn = 10.
  01
0 .t
1 tt
2 tt
3 .t
4 t.

*** Darwin 9x6 ***
Turn = 0.
  012345
0 r....f
1 .t..r.
2 ..f...
3 ......
4 ......
5 ......
6 ...r..
7 ....t.
8 .....f

Turn = 5.
  012345
0 r...r.
1 .t...r
2 ..f...
3 ......
4 ......
5 ......
6 ......
7 ....t.
8 .r...f

Turn = 10.
  012345
0 .tt...
1 .t....
2 ..f...
3 ......
4 ......
5 ......
6 .....r
7 ....t.
8 ..r..f

Turn = 15.
  012345
0 .tt...
1 .t....
2 ..f...
3 ......
4 ......
5 ......
6 ......
7 ....rt
8 ....rr

Turn = 20.
  012345
0 .tt...
1 .t....
2 ..f...
3 ......
4 .....r
5 ....r.
6 ......
7 ......
8 .r.r..

*** Darwin 9x9 ***
Turn = 0.
  012345678
0 .........
1 .........
2 ...t.....
3 .........
4 .........
5 .........
6 .........
7 .........
8 .........

Turn = 1.
  012345678
0 .........
1 .........
2 ...t.....
3 .........
4 .........
5 .........
6 .........
7 .........
8 .........

Turn = 2.
  012345678
0 .........
1 .........
2 ...t.....
3 .........
4 .........
5 .........
6 .........
7 .........
8 .........

Turn = 3.
  012345678
0 .........
1 .........
2 ...t.....
3 .........
4 .........
5 .........
6 .........
7 .........
8 .........

*** Darwin 5x5 ***
Turn = 0.
  01234
0 .h...
1 t.f..
2 ht..t
3 r....
4 .hhh.

Turn = 4.
  01234
0 .h...
1 t.f..
2 rt..t
3 tt...
4 ..hh.

Turn = 8.
  01234
0 .h...
1 t.f..
2 tt..t
3 tt...
4 ..hh.

Turn = 12.
  01234
0 .h...
1 t.f..
2 tt..t
3 tt...
4 ..hh.
