24

7 7
7
t 3 6 s
t 3 2 e
t 2 2 e
r 4 1 e
r 4 6 s
f 3 5 e
h 3 4 n
52 7

13 11
5
r 2 10 n
r 11 4 s
r 11 10 w
r 5 2 n
f 5 7 s
5 10

5 8
6
f 3 0 e
t 1 3 s
f 4 1 n
h 4 5 s
f 3 0 n
h 4 1 w
8 2

10 4
4
h 0 0 n
h 8 2 n
h 2 1 e
f 4 1 n
1 1

2 2
2
t 0 1 e
t 1 1 s
4 1

5 4
1
f 3 3 s
20 1

2 9
6
f 1 7 n
h 1 8 e
f 1 1 n
h 1 6 w
t 0 1 n
f 1 5 e
10 5

8 2
5
f 4 1 w
h 7 0 s
t 1 0 s
h 5 0 n
h 0 0 s
10 5

3 6
6
t 0 4 s
h 2 3 n
f 2 4 e
t 1 4 w
t 2 3 e
r 1 1 e
952 55

9 3
4
h 0 0 n
h 8 2 n
h 2 1 e
f 4 1 n
1 1

2 9
3
t 0 1 s
h 0 1 w
f 1 1 e
4 3

3 3
3
r 0 0 s
h 1 1 n
t 2 2 e
5 1

3 3
4
r 0 1 s
r 2 0 s
t 1 1 e
h 1 1 n
9 7

1 3
1
h 0 1 n
1 6

11 1
6
t 9 0 n
h 2 0 e
f 4 0 s
r 2 0 e
h 4 0 n
t 0 0 n
10 3

5 6
6
f 2 4 n
h 3 0 w
r 0 5 e
h 4 1 e
h 4 0 w
h 1 0 e
3 3

6 4
2
t 5 3 w
h 4 2 n
18 5

4 4
3
r 1 2 n
f 2 1 s
f 0 2 s
12 10

9 8
2
r 1 7 w
h 7 3 n
79 70

7 11
1
r 6 9 s
96 59

8 4
5
f 2 2 e
h 5 1 n
h 4 3 s
h 4 1 w
h 5 3 e
29 5

4 11
9
r 0 6 s
h 1 6 e
r 0 1 s
f 2 3 n
t 1 3 w
f 3 7 n
t 0 7 w
r 3 6 s
t 2 3 w
5 1

8 8
15
t 0 0 s
r 5 4 e
f 2 2 e
f 5 2 e
f 1 1 e
f 5 5 e
f 4 4 w
t 4 1 n
r 3 2 n
h 3 4 e
h 1 2 s
h 2 3 s
h 2 4 e
h 6 1 n
t 2 3 w
150 50

1 6
1
t 0 4 n
42 31
