20

11 5
15
t 6 2 s
f 5 4 n
f 5 1 w
t 3 3 e
h 5 1 n
t 7 0 n
f 0 0 s
r 6 1 s
t 7 3 n
r 1 1 s
t 2 1 w
t 1 3 e
h 0 0 s
h 4 4 s
h 10 4 e
194 129

26 8
6
f 8 2 n
r 7 0 n
f 22 4 w
h 17 4 w
f 24 6 w
h 9 5 s
159 69

24 16
16
t 21 5 e
f 3 1 s
t 0 15 e
t 15 7 e
r 5 0 s
r 20 7 n
r 17 2 n
r 16 10 w
f 7 15 s
r 9 5 w
t 11 12 e
h 8 15 e
t 4 6 s
h 21 3 w
f 21 0 n
f 0 3 e
6 36

26 17
12
h 16 2 w
h 1 1 e
f 22 7 w
r 25 2 w
h 23 4 e
t 13 7 s
t 9 9 n
h 24 13 s
h 11 0 s
f 4 6 w
h 20 8 w
f 19 15 w
24 30

21 13
3
t 12 12 w
t 18 5 s
t 13 9 s
114 29

30 26
14
h 7 6 e
f 15 0 n
r 18 11 w
f 10 23 n
f 11 4 s
h 26 9 e
t 7 8 e
f 7 21 w
r 12 11 n
t 17 16 e
f 27 0 w
t 25 18 n
h 24 22 s
f 17 21 e
196 141

11 20
14
t 9 15 s
r 1 7 n
t 7 7 w
h 3 16 w
f 2 8 e
h 2 3 w
r 2 4 e
t 4 9 n
h 9 5 s
t 10 1 w
f 6 2 s
f 0 2 n
h 10 2 w
h 2 17 w
127 95

24 13
4
h 6 0 w
f 8 9 n
h 12 8 w
t 9 9 n
117 26

21 7
5
f 14 4 n
f 18 5 w
t 3 2 w
h 19 5 e
f 2 0 e
184 72

23 16
14
h 19 13 w
h 8 3 n
r 13 4 e
f 3 6 n
r 12 12 w
h 6 4 w
h 19 2 n
t 20 5 w
r 2 6 s
t 11 8 w
r 0 12 n
h 0 0 e
t 20 6 w
f 3 15 s
38 144

28 16
15
h 27 4 w
t 2 0 w
r 6 6 n
h 10 14 s
h 16 11 w
h 17 10 s
h 5 14 n
t 7 7 w
f 16 8 e
h 27 3 s
r 0 2 s
f 13 12 s
h 5 10 n
r 3 9 w
h 12 13 n
168 169

27 7
2
t 12 1 e
t 15 5 e
117 91

6 26
15
h 4 24 s
t 2 15 n
h 0 20 e
r 3 14 e
r 3 13 s
h 3 18 e
f 1 17 n
t 2 12 w
t 2 20 s
r 4 11 n
r 1 10 e
f 0 9 e
f 4 21 s
f 2 9 e
r 3 14 n
164 67

18 29
6
f 6 23 s
t 0 14 n
r 14 7 w
t 3 19 n
h 12 9 w
r 0 7 s
54 138

7 7
3
f 0 3 w
t 2 6 n
r 3 0 s
79 88

26 18
14
f 21 12 n
f 12 16 w
r 24 13 s
t 21 14 w
t 9 10 n
t 15 8 e
r 2 14 w
f 22 17 w
f 19 4 s
h 24 5 e
f 5 12 n
r 24 13 e
t 8 0 s
r 8 14 n
120 46

12 1
8
t 2 0 e
r 1 0 s
h 1 0 e
f 5 0 n
r 7 0 s
r 9 0 s
f 7 0 e
h 2 0 w
129 190

14 23
6
h 13 2 s
f 0 10 w
h 0 18 n
f 1 6 w
t 13 12 n
h 4 8 n
150 91

18 29
13
h 13 26 w
f 5 17 e
h 1 0 n
h 0 14 e
t 11 6 n
r 2 5 w
h 7 1 w
t 13 2 s
f 8 24 s
r 13 22 w
r 3 24 w
h 2 8 s
r 13 23 w
34 162

5 27
4
h 2 3 s
r 0 7 n
f 2 19 n
r 0 23 n
192 153
